<?xml version="1.0" encoding="UTF-8" standalone="no"?>
<!-- Created with Inkscape (http://www.inkscape.org/) -->

<svg
   xmlns:dc="http://purl.org/dc/elements/1.1/"
   xmlns:cc="http://creativecommons.org/ns#"
   xmlns:rdf="http://www.w3.org/1999/02/22-rdf-syntax-ns#"
   xmlns:svg="http://www.w3.org/2000/svg"
   xmlns="http://www.w3.org/2000/svg"
   xmlns:xlink="http://www.w3.org/1999/xlink"
   xmlns:sodipodi="http://sodipodi.sourceforge.net/DTD/sodipodi-0.dtd"
   xmlns:inkscape="http://www.inkscape.org/namespaces/inkscape"
   width="48"
   height="48"
   viewBox="0 0 12.7 12.7"
   version="1.1"
   id="svg8"
   inkscape:version="0.92.1 r15371"
   sodipodi:docname="GreenDownTriangle.svg"
   inkscape:export-filename="C:\Users\jamesd\Documents\NetbeansProjects\EtherJ\src\main\resources\etherj\ui\resources\GreenDownTriangle16.png"
   inkscape:export-xdpi="32"
   inkscape:export-ydpi="32">
  <defs
     id="defs2">
    <linearGradient
       gradientTransform="matrix(0.28222223,0,0,0.28222223,0.37171488,286.87837)"
       inkscape:collect="always"
       xlink:href="#linearGradient3771"
       id="linearGradient5049"
       x1="8.8773146"
       y1="2.8706176"
       x2="32.992622"
       y2="27.683575"
       gradientUnits="userSpaceOnUse" />
    <linearGradient
       id="linearGradient3771">
      <stop
         id="stop3773"
         offset="0"
         style="stop-color:#0fd800;stop-opacity:1;" />
      <stop
         id="stop3775"
         offset="1"
         style="stop-color:#a8ffa1;stop-opacity:1;" />
    </linearGradient>
  </defs>
  <sodipodi:namedview
     id="base"
     pagecolor="#ffffff"
     bordercolor="#666666"
     borderopacity="1.0"
     inkscape:pageopacity="0.0"
     inkscape:pageshadow="2"
     inkscape:zoom="21.916667"
     inkscape:cx="23.885932"
     inkscape:cy="24"
     inkscape:document-units="px"
     inkscape:current-layer="layer1"
     showgrid="false"
     units="px"
     inkscape:window-width="1541"
     inkscape:window-height="1359"
     inkscape:window-x="2288"
     inkscape:window-y="288"
     inkscape:window-maximized="0" />
  <metadata
     id="metadata5">
    <rdf:RDF>
      <cc:Work
         rdf:about="">
        <dc:format>image/svg+xml</dc:format>
        <dc:type
           rdf:resource="http://purl.org/dc/dcmitype/StillImage" />
        <dc:title></dc:title>
      </cc:Work>
    </rdf:RDF>
  </metadata>
  <g
     inkscape:label="Layer 1"
     inkscape:groupmode="layer"
     id="layer1"
     transform="translate(0,-284.3)">
    <path
       sodipodi:type="star"
       style="fill:url(#linearGradient5049);fill-opacity:1;stroke:#098000;stroke-width:0.79374999;stroke-linejoin:round;stroke-miterlimit:4;stroke-dasharray:none;stroke-opacity:1"
       id="path5041"
       sodipodi:sides="3"
       sodipodi:cx="6.3017111"
       sodipodi:cy="292.15146"
       sodipodi:r1="4.8469729"
       sodipodi:r2="2.583658"
       sodipodi:arg1="-1.5707963"
       sodipodi:arg2="-0.52359884"
       inkscape:flatsided="true"
       inkscape:rounded="0"
       inkscape:randomized="0"
       d="m 6.3017112,287.30449 4.1976018,7.27046 -8.3952037,0 z"
       inkscape:transform-center-x="0.18115248"
       inkscape:transform-center-y="-4.6620052"
       transform="matrix(1.1518318,0,0,-1.049884,-0.9081469,596.10309)" />
  </g>
</svg>
